<?xml version="1.0" encoding="utf-8"?>
<svg width="75px" height="52px" viewBox="0 0 75 52" version="1.1" xmlns:xlink="http://www.w3.org/1999/xlink" xmlns="http://www.w3.org/2000/svg">
  <path d="M5.40523 46.4189C7.16065 49.6479 12.0368 54.6932 19.4486 50.2533C27.0554 45.6117 33.882 30.274 32.9068 17.9635C32.7117 12.7164 30.1761 -0.199473 13.7922 0.00233814C9.11111 1.41502 1.8944 2.02045 0.138977 10.9001C-0.641208 14.9364 1.8944 20.3853 6.9656 23.4124C11.0616 27.2468 13.9873 29.6686 8.13588 35.9247C4.03991 41.7772 3.64981 43.1899 5.40523 46.4189ZM47.4052 46.4189C49.1606 49.6479 54.0368 54.6932 61.4486 50.2533C69.0554 45.6117 75.882 30.274 74.9068 17.9635C74.7117 12.7164 72.1761 -0.199473 55.7922 0.00233814C51.1111 1.41502 43.8944 2.02045 42.139 10.9001C41.3588 14.9364 43.8944 20.3853 48.9656 23.4124C53.0616 27.2468 55.9873 29.6686 50.1359 35.9247C46.0399 41.7772 45.6498 43.1899 47.4052 46.4189Z" transform="matrix(-1 0 0 1 75 0)" id="”" fill="#D0202E" stroke="none" />
</svg>