<?xml version="1.0" encoding="utf-8"?>
<svg width="419px" height="846px" viewBox="0 0 419 846" version="1.1" xmlns:xlink="http://www.w3.org/1999/xlink" xmlns="http://www.w3.org/2000/svg">
  <path d="M47.3214 0L47.3183 1.45277C47.2946 7.73074 47.1211 13.7626 46.7851 19.6636L46.6195 22.3783C46.0832 30.4955 45.233 38.3998 44.0357 46.4002L43.624 49.0692C42.7754 54.4212 41.7706 59.8301 40.6018 65.3903L40.004 68.1839L39.3793 71.0042L38.7247 73.8546C38.5023 74.8104 38.2751 75.7711 38.0433 76.738L37.3319 79.6577C37.0921 80.6373 36.8445 81.6232 36.5937 82.6153L35.8255 85.6124C35.6961 86.1171 35.5636 86.6219 35.4311 87.1282L34.6188 90.1931C34.48 90.7057 34.3412 91.2231 34.2024 91.7421L33.3458 94.8763L32.4593 98.0626L31.5429 101.303L30.5965 104.598C30.4356 105.151 30.2747 105.708 30.1122 106.267L29.1185 109.652L27.571 114.844L21.0927 136.289L19.2709 142.438L18.2487 145.938L17.5957 148.198L16.6556 151.492L15.471 155.716L14.6318 158.776L14.0939 160.77L13.3162 163.702L12.5749 166.575L12.0954 168.461L11.6316 170.33L11.1789 172.185L10.7372 174.029L10.3066 175.865L9.67723 178.613L9.06679 181.366L8.27652 185.058L7.89006 186.926L7.31905 189.759C2.49699 214.027 0 238.319 0 265C0 291.681 2.49699 315.973 7.31905 340.241L7.89006 343.074L8.27652 344.942L9.06679 348.634L9.67723 351.387L10.3066 354.135L10.7372 355.971L11.1789 357.815L11.6316 359.67L12.0954 361.539L12.5749 363.425L13.3162 366.298L14.0939 369.23L14.6318 371.224L15.471 374.284L16.6556 378.508L17.5957 381.802L18.2487 384.062L19.2709 387.563L21.0927 393.711L27.571 415.154L29.1185 420.348L30.1122 423.733C30.2747 424.292 30.4356 424.849 30.5965 425.402L31.5429 428.697L32.4593 431.937L33.3458 435.124L34.2024 438.258C34.3412 438.777 34.48 439.294 34.6188 439.807L35.4311 442.872C35.5636 443.378 35.6961 443.883 35.8255 444.388L36.5937 447.385C36.8445 448.377 37.0921 449.363 37.3319 450.342L38.0433 453.262C38.2751 454.229 38.5023 455.19 38.7247 456.145L39.3793 458.996L40.004 461.816L40.6018 464.61C41.7706 470.17 42.7754 475.579 43.624 480.931L44.0357 483.6C45.233 491.6 46.0832 499.504 46.6195 507.622L46.7851 510.336C47.1211 516.237 47.2946 522.268 47.3183 528.547L47.3214 530L47.3183 531.453C47.2946 537.732 47.1211 543.763 46.7851 549.664L46.6195 552.378C46.0832 560.496 45.233 568.4 44.0357 576.4L43.624 579.069C42.7754 584.42 41.7706 589.83 40.6018 595.39L40.004 598.184L39.3793 601.004L38.7247 603.855C38.5023 604.81 38.2751 605.771 38.0433 606.738L37.3319 609.658C37.0921 610.637 36.8445 611.623 36.5937 612.615L35.8255 615.614C35.6961 616.117 35.5636 616.622 35.4311 617.128L34.6188 620.191C34.48 620.706 34.3412 621.223 34.2024 621.742L33.3458 624.876L32.4593 628.063L31.5429 631.303L30.5965 634.598C30.4356 635.151 30.2747 635.708 30.1122 636.267L29.1185 639.652L27.571 644.844L21.0927 666.289L19.2709 672.438L18.2487 675.938L17.5957 678.198L16.6556 681.492L15.471 685.716L14.6318 688.776L14.0939 690.77L13.3162 693.702L12.5749 696.575L12.0954 698.461L11.6316 700.33L11.1789 702.185L10.7372 704.029L10.3066 705.865L9.67723 708.613L9.06679 711.366L8.27652 715.06L7.89006 716.926L7.31905 719.759C2.49699 744.027 0 768.319 0 795C0 821.681 2.49699 845.973 7.31905 870.241L7.89006 873.074L8.27652 874.94L9.06679 878.634L9.67723 881.387L10.3066 884.135L10.7372 885.971L11.1789 887.815L11.6316 889.67L12.0954 891.539L12.5749 893.425L13.3162 896.298L14.0939 899.23L14.6318 901.224L15.471 904.284L16.6556 908.508L17.5957 911.802L18.2487 914.062L19.2709 917.563L21.0927 923.711L27.571 945.156L29.1185 950.348L30.1122 953.733C30.2747 954.292 30.4356 954.849 30.5965 955.402L31.5429 958.697L32.4593 961.937L33.3458 965.124L34.2024 968.258C34.3412 968.777 34.48 969.294 34.6188 969.809L35.4311 972.872C35.5636 973.378 35.6961 973.883 35.8255 974.386L36.5937 977.385C36.8445 978.377 37.0921 979.363 37.3319 980.342L38.0433 983.262C38.2751 984.229 38.5023 985.19 38.7247 986.145L39.3793 988.996L40.004 991.816L40.6018 994.61C41.7706 1000.17 42.7754 1005.58 43.624 1010.93L44.0357 1013.6C45.233 1021.6 46.0832 1029.5 46.6195 1037.62L46.7851 1040.34C47.1211 1046.24 47.2946 1052.27 47.3183 1058.55L47.3214 1060L47.3183 1061.45C47.2946 1067.73 47.1211 1073.76 46.7851 1079.66L46.6195 1082.38C46.0832 1090.5 45.233 1098.4 44.0357 1106.4L43.624 1109.07C42.7754 1114.42 41.7706 1119.83 40.6018 1125.39L40.004 1128.18L39.3793 1131L38.7247 1133.85C38.5023 1134.81 38.2751 1135.77 38.0433 1136.74L37.3319 1139.66C37.0921 1140.64 36.8445 1141.62 36.5937 1142.62L35.8255 1145.61C35.6961 1146.12 35.5636 1146.62 35.4311 1147.13L34.6188 1150.19C34.48 1150.71 34.3412 1151.22 34.2024 1151.74L33.3458 1154.88L32.4593 1158.06L31.5429 1161.3L30.5965 1164.6C30.4356 1165.15 30.2747 1165.71 30.1122 1166.27L29.1185 1169.65L27.571 1174.85L21.0927 1196.29L19.2709 1202.44L18.2487 1205.94L17.5957 1208.2L16.6556 1211.49L15.471 1215.72L14.6318 1218.77L14.0939 1220.77L13.3162 1223.7L12.5749 1226.57L12.0954 1228.46L11.6316 1230.33L11.1789 1232.18L10.7372 1234.03L10.3066 1235.86L9.67723 1238.61L9.06679 1241.37L8.27652 1245.06L7.89006 1246.93L7.31905 1249.76C2.49699 1274.03 0 1298.32 0 1325C0 1351.68 2.49699 1375.97 7.31905 1400.24L7.89006 1403.07L8.27652 1404.94L9.06679 1408.63L9.67723 1411.39L10.3066 1414.14L10.7372 1415.97L11.1789 1417.82L11.6316 1419.67L12.0954 1421.54L12.5749 1423.43L13.3162 1426.3L14.0939 1429.23L14.6318 1431.23L15.471 1434.28L16.6556 1438.51L17.5957 1441.8L18.2487 1444.06L19.2709 1447.56L21.0927 1453.71L27.571 1475.15L29.1185 1480.35L30.1122 1483.73C30.2747 1484.29 30.4356 1484.85 30.5965 1485.4L31.5429 1488.7L32.4593 1491.94L33.3458 1495.12L34.2024 1498.26C34.3412 1498.78 34.48 1499.29 34.6188 1499.81L35.4311 1502.87C35.5636 1503.38 35.6961 1503.88 35.8255 1504.39L36.5937 1507.38C36.8445 1508.38 37.0921 1509.36 37.3319 1510.34L38.0433 1513.26C38.2751 1514.23 38.5023 1515.19 38.7247 1516.15L39.3793 1519L40.004 1521.82L40.6018 1524.61C41.7706 1530.17 42.7754 1535.58 43.624 1540.93L44.0357 1543.6C45.233 1551.6 46.0832 1559.5 46.6195 1567.62L46.7851 1570.34C47.1211 1576.24 47.2946 1582.27 47.3183 1588.55L47.3214 1590L47.3183 1591.45C47.2946 1597.73 47.1211 1603.76 46.7851 1609.66L46.6195 1612.38C46.0832 1620.5 45.233 1628.4 44.0357 1636.4L43.624 1639.07C42.7754 1644.42 41.7706 1649.83 40.6018 1655.39L40.004 1658.18L39.3793 1661L38.7247 1663.85C38.5023 1664.81 38.2751 1665.77 38.0433 1666.74L37.3319 1669.66C37.0921 1670.64 36.8445 1671.62 36.5937 1672.62L35.8255 1675.61C35.6961 1676.12 35.5636 1676.62 35.4311 1677.13L34.6188 1680.19C34.48 1680.71 34.3412 1681.22 34.2024 1681.74L33.3458 1684.88L32.4593 1688.06L31.5429 1691.3L30.5965 1694.6C30.4356 1695.15 30.2747 1695.71 30.1122 1696.27L29.1185 1699.65L27.571 1704.85L21.0927 1726.29L19.2709 1732.44L18.2487 1735.94L17.5957 1738.2L16.6556 1741.49L15.471 1745.72L14.6318 1748.77L14.0939 1750.77L13.3162 1753.7L12.5749 1756.57L12.0954 1758.46L11.6316 1760.33L11.1789 1762.18L10.7372 1764.03L10.3066 1765.86L9.67723 1768.61L9.06679 1771.37L8.27652 1775.06L7.89006 1776.93L7.31905 1779.76C2.49699 1804.03 0 1828.32 0 1855C0 1881.68 2.49699 1905.97 7.31905 1930.24L7.89006 1933.07L8.27652 1934.94L9.06679 1938.63L9.67723 1941.39L10.3066 1944.14L10.7372 1945.97L11.1789 1947.82L11.6316 1949.67L12.0954 1951.54L12.5749 1953.43L13.3162 1956.3L14.0939 1959.23L14.6318 1961.23L15.471 1964.28L16.6556 1968.51L17.5957 1971.8L18.2487 1974.06L19.2709 1977.56L21.0927 1983.71L27.571 2005.15L29.1185 2010.35L30.1122 2013.73C30.2747 2014.29 30.4356 2014.85 30.5965 2015.4L31.5429 2018.7L32.4593 2021.94L33.3458 2025.12L34.2024 2028.26C34.3412 2028.78 34.48 2029.29 34.6188 2029.81L35.4311 2032.87C35.5636 2033.38 35.6961 2033.88 35.8255 2034.39L36.5937 2037.38C36.8445 2038.38 37.0921 2039.36 37.3319 2040.34L38.0433 2043.26C38.2751 2044.23 38.5023 2045.19 38.7247 2046.15L39.3793 2049L40.004 2051.82L40.6018 2054.61C41.7706 2060.17 42.7754 2065.58 43.624 2070.93L44.0357 2073.6C45.233 2081.6 46.0832 2089.5 46.6195 2097.62L46.7851 2100.34C47.1211 2106.24 47.2946 2112.27 47.3183 2118.55L47.3214 2120L1869.91 2120L1869.91 0L47.3214 0Z" transform="matrix(-1 0 0 1 418.9077 0)" id="Fill-1-Copy-2" fill="#F4F8FA" fill-rule="evenodd" stroke="none" />
</svg>